{
    "name": "Tags",
    "fields": [
        {
            "fieldName": "context",
            "fieldType": "String"
        }
    ],
    "relationships": [
        {
            "relationshipType": "many-to-many",
            "otherEntityName": "items",
            "otherEntityRelationshipName": "tags",
            "relationshipName": "items",
            "otherEntityField": "id",
            "ownerSide": false
        },
        {
            "relationshipType": "many-to-many",
            "otherEntityName": "projecs",
            "otherEntityRelationshipName": "tags",
            "relationshipName": "projecs",
            "otherEntityField": "id",
            "ownerSide": false
        }
    ],
    "changelogDate": "20191012160441",
    "entityTableName": "tags",
    "dto": "mapstruct",
    "pagination": "pagination",
    "service": "serviceImpl",
    "jpaMetamodelFiltering": true,
    "fluentMethods": true,
    "readOnly": false,
    "clientRootFolder": "",
    "applications": "*"
}